counID,1992,1993,1994,1995,1996,1997,1998,1999,2000,2001,2002,2003,2004,2005,2006,2007,2008,2009,2010,2011,2012,2013,2014,2015,2016,2017,2018
ARG,A,A,A,A,A,A,A,A,A,A,N,N,N,N,N,N,N,N,N,N,N,N,N,N,N,N,N
ATG,N,N,N,N,N,N,N,N,N,N,N,N,N,N,N,N,N,N,N,N,A,A,N,N,N,N,N
BHS,N,N,N,N,N,N,N,N,N,N,A,N,A,A,A,N,N,N,N,N,N,N,N,N,N,N,N
BLZ,N,N,A,A,N,N,A,A,A,N,N,A,N,A,A,A,A,A,A,A,N,N,N,N,N,N,N
BOL,A,A,A,A,A,A,A,A,A,A,A,A,A,A,A,A,T,T,N,N,N,N,N,N,N,N,N
BRA,A,A,A,A,A,N,N,N,N,N,N,N,N,N,N,N,N,N,N,N,N,N,N,N,N,N,N
BRB,N,N,A,A,A,N,A,A,A,A,N,A,A,A,A,N,A,N,T,T,T,T,T,T,N,N,N
CHL,A,A,A,A,A,A,A,A,A,A,A,A,A,A,A,A,T,T,T,N,N,N,N,N,N,N,N
COL,A,A,A,A,A,A,A,A,A,A,A,A,A,A,A,A,T,N,N,N,N,N,N,N,N,N,N
CRI,N,N,A,A,A,A,A,A,A,A,A,A,A,A,A,A,T,T,T,T,N,N,N,N,N,N,N
DMA,N,A,A,N,A,N,A,A,A,A,A,A,A,A,A,A,A,A,A,A,A,N,N,N,N,N,N
DOM,N,N,N,N,N,N,N,N,N,N,A,A,A,A,A,A,T,T,T,T,T,T,T,T,N,N,N
ECU,A,A,A,A,A,A,A,A,A,A,A,A,A,A,A,A,N,N,N,N,N,N,N,N,N,N,N
GRD,N,N,A,A,N,N,N,A,A,A,A,A,A,A,A,N,A,N,N,A,A,A,N,N,N,N,N
GTM,N,A,A,A,A,A,A,A,A,A,A,A,A,A,A,A,T,T,T,T,A,T,T,T,T,T,T
GUY,N,N,N,N,N,N,N,N,N,N,N,A,A,A,A,A,A,A,A,A,A,A,A,N,N,N,N
HND,N,A,A,A,A,A,A,A,A,A,A,A,A,A,A,A,T,T,T,T,N,N,N,N,N,N,N
JAM,N,A,A,A,A,N,N,A,A,N,N,A,A,A,A,A,A,A,A,A,A,A,T,T,T,T,T
KNA,N,A,A,A,N,N,A,A,A,A,A,A,A,A,A,A,A,A,A,A,A,A,N,N,N,N,N
LCA,N,A,A,A,N,N,N,A,A,A,A,A,A,A,A,A,A,A,A,A,N,A,N,N,N,N,N
MEX,A,A,A,A,A,A,A,A,A,N,N,N,N,N,N,N,N,N,N,N,N,N,N,N,N,N,N
NIC,N,A,A,A,A,A,A,A,A,A,A,A,A,A,A,A,T,T,T,T,T,T,T,N,N,N,N
PAN,N,N,N,A,A,A,A,A,A,A,A,A,A,A,A,A,T,T,T,T,N,N,N,N,N,N,N
PER,A,A,A,A,A,A,A,A,A,A,A,A,A,A,A,A,N,N,N,N,N,N,N,N,N,N,N
PRY,A,A,N,N,N,N,N,N,N,N,N,N,N,N,N,N,N,N,N,N,N,N,N,N,N,N,N
SLV,N,A,A,A,A,A,A,A,A,A,A,A,A,A,A,A,T,T,T,T,T,N,N,N,N,N,N
SUR,N,N,N,N,N,A,A,A,A,A,N,N,N,N,N,N,N,N,N,N,N,A,T,T,T,T,T
TTO,N,N,A,A,A,N,N,A,A,A,A,A,A,A,A,A,A,N,A,N,N,N,N,N,N,N,N
URY,N,A,A,A,A,A,A,A,A,A,A,A,A,A,A,A,T,T,T,T,N,N,N,N,N,N,N
USA,A,A,A,A,A,A,A,A,A,A,A,A,A,A,A,A,T,T,T,T,A,T,T,T,T,T,N
VCT,N,A,A,A,N,N,A,A,A,A,A,A,A,A,A,A,A,A,A,A,N,A,N,N,N,N,N
VEN,A,A,A,A,A,A,A,A,A,A,A,A,A,A,A,T,T,T,T,T,T,T,T,T,T,N,N
